"No."|"Kode Transaksi"|"Tanggal"|"Nama Supplier"|"Nama Barang"|"QTY"|"Sub Total (Rp)"|"Nama Petugas"
"1"|"FMK29K01119M616"|"17-04-2021 01:14:03"|"Titin"|"C4 A (Beras Super)"|"50"|"700,000"|"imam"
"2"|"JK1912662994481"|"17-04-2021 01:10:08"|"Titin"|"C4 C (Beras Biasa)"|"100"|"700,000"|"imam"
"3"|"JK1912662994481"|"17-04-2021 01:10:08"|"Titin"|"C4 A (Beras Super)"|"100"|"1,300,000"|"imam"
"4"|"JK1912662994481"|"17-04-2021 01:10:08"|"Titin"|"C4 B (Beras Baik)"|"100"|"1,000,000"|"imam"
